examples/default/nco.vcd
$version Generated by VerilatedVcd $end
$date Thu Feb 16 22:57:28 2023 $end
$timescale 1ps $end

 $scope module TOP $end
  $var wire  1 a! clk $end
  $var wire  1 h! i_nco_ack $end
  $var wire 32 f! i_nco_dat [31:0] $end
  $var wire  1 g! i_nco_req $end
  $var wire  1 b! reset_n $end
  $var wire  1 e! t_angle_ack $end
  $var wire 32 c! t_angle_dat [31:0] $end
  $var wire  1 d! t_angle_req $end
  $scope module nco $end
   $var wire 25 f beta0 [24:0] $end
   $var wire 25 l beta1 [24:0] $end
   $var wire 25 r beta2 [24:0] $end
   $var wire 25 x beta3 [24:0] $end
   $var wire 25 ~ beta4 [24:0] $end
   $var wire 25 &! beta5 [24:0] $end
   $var wire 25 ,! beta6 [24:0] $end
   $var wire 25 2! beta7 [24:0] $end
   $var wire 25 8! beta8 [24:0] $end
   $var wire 25 g beta_calc0 [24:0] $end
   $var wire 25 m beta_calc1 [24:0] $end
   $var wire 25 s beta_calc2 [24:0] $end
   $var wire 25 y beta_calc3 [24:0] $end
   $var wire 25 !! beta_calc4 [24:0] $end
   $var wire 25 '! beta_calc5 [24:0] $end
   $var wire 25 -! beta_calc6 [24:0] $end
   $var wire 25 3! beta_calc7 [24:0] $end
   $var wire 25 9! beta_calc8 [24:0] $end
   $var wire  1 a! clk $end
   $var wire 32 # dat0 [31:0] $end
   $var wire 32 c! dat0_nxt [31:0] $end
   $var wire 32 # dat0_r [31:0] $end
   $var wire 68 % dat1 [67:0] $end
   $var wire 68 [ dat10 [67:0] $end
   $var wire 68 ^ dat10_nxt [67:0] $end
   $var wire 68 [ dat10_r [67:0] $end
   $var wire 32 $ dat11 [31:0] $end
   $var wire 68 ( dat1_nxt [67:0] $end
   $var wire 68 % dat1_r [67:0] $end
   $var wire 68 + dat2 [67:0] $end
   $var wire 68 . dat2_nxt [67:0] $end
   $var wire 68 + dat2_r [67:0] $end
   $var wire 68 1 dat3 [67:0] $end
   $var wire 68 4 dat3_nxt [67:0] $end
   $var wire 68 1 dat3_r [67:0] $end
   $var wire 68 7 dat4 [67:0] $end
   $var wire 68 : dat4_nxt [67:0] $end
   $var wire 68 7 dat4_r [67:0] $end
   $var wire 68 = dat5 [67:0] $end
   $var wire 68 @ dat5_nxt [67:0] $end
   $var wire 68 = dat5_r [67:0] $end
   $var wire 68 C dat6 [67:0] $end
   $var wire 68 F dat6_nxt [67:0] $end
   $var wire 68 C dat6_r [67:0] $end
   $var wire 68 I dat7 [67:0] $end
   $var wire 68 L dat7_nxt [67:0] $end
   $var wire 68 I dat7_r [67:0] $end
   $var wire 68 O dat8 [67:0] $end
   $var wire 68 R dat8_nxt [67:0] $end
   $var wire 68 O dat8_r [67:0] $end
   $var wire 68 U dat9 [67:0] $end
   $var wire 68 X dat9_nxt [67:0] $end
   $var wire 68 U dat9_r [67:0] $end
   $var wire  1 i! en0 $end
   $var wire  1 M! en1 $end
   $var wire  1 V! en10 $end
   $var wire  1 N! en2 $end
   $var wire  1 O! en3 $end
   $var wire  1 P! en4 $end
   $var wire  1 Q! en5 $end
   $var wire  1 R! en6 $end
   $var wire  1 S! en7 $end
   $var wire  1 T! en8 $end
   $var wire  1 U! en9 $end
   $var wire  1 h! i_nco_ack $end
   $var wire 32 f! i_nco_dat [31:0] $end
   $var wire  1 g! i_nco_req $end
   $var wire 18 i im0 [17:0] $end
   $var wire 18 o im1 [17:0] $end
   $var wire 18 u im2 [17:0] $end
   $var wire 18 { im3 [17:0] $end
   $var wire 18 #! im4 [17:0] $end
   $var wire 18 )! im5 [17:0] $end
   $var wire 18 /! im6 [17:0] $end
   $var wire 18 5! im7 [17:0] $end
   $var wire 18 ;! im8 [17:0] $end
   $var wire 18 k im_shift0 [17:0] $end
   $var wire 18 q im_shift1 [17:0] $end
   $var wire 18 w im_shift2 [17:0] $end
   $var wire 18 } im_shift3 [17:0] $end
   $var wire 18 %! im_shift4 [17:0] $end
   $var wire 18 +! im_shift5 [17:0] $end
   $var wire 18 1! im_shift6 [17:0] $end
   $var wire 18 7! im_shift7 [17:0] $end
   $var wire 18 =! im_shift8 [17:0] $end
   $var wire 18 ?! imcalc11 [17:0] $end
   $var wire 16 A! imdata11 [15:0] $end
   $var wire 32 a ncolut [31:0] $end
   $var wire  4 c node1_addr [3:0] $end
   $var wire 32 # node1_angle [31:0] $end
   $var wire 18 e node1_imSwap [17:0] $end
   $var wire  3 b node1_phase [2:0] $end
   $var wire 18 d node1_reSwap [17:0] $end
   $var wire 18 h re0 [17:0] $end
   $var wire 18 n re1 [17:0] $end
   $var wire 18 t re2 [17:0] $end
   $var wire 18 z re3 [17:0] $end
   $var wire 18 "! re4 [17:0] $end
   $var wire 18 (! re5 [17:0] $end
   $var wire 18 .! re6 [17:0] $end
   $var wire 18 4! re7 [17:0] $end
   $var wire 18 :! re8 [17:0] $end
   $var wire 18 j re_shift0 [17:0] $end
   $var wire 18 p re_shift1 [17:0] $end
   $var wire 18 v re_shift2 [17:0] $end
   $var wire 18 | re_shift3 [17:0] $end
   $var wire 18 $! re_shift4 [17:0] $end
   $var wire 18 *! re_shift5 [17:0] $end
   $var wire 18 0! re_shift6 [17:0] $end
   $var wire 18 6! re_shift7 [17:0] $end
   $var wire 18 <! re_shift8 [17:0] $end
   $var wire 18 >! recalc11 [17:0] $end
   $var wire 16 @! redata11 [15:0] $end
   $var wire  1 b! reset_n $end
   $var wire  1 e! t_angle_ack $end
   $var wire 32 c! t_angle_dat [31:0] $end
   $var wire  1 d! t_angle_req $end
   $scope module uctrl $end
    $var wire  1 B! ack0 $end
    $var wire  1 C! ack0_0 $end
    $var wire  1 C! ack0m $end
    $var wire  1 C! ack1 $end
    $var wire  1 L! ack10 $end
    $var wire  1 h! ack10_0 $end
    $var wire  1 h! ack10m $end
    $var wire  1 h! ack11 $end
    $var wire  1 h! ack11_0 $end
    $var wire  1 h! ack11m $end
    $var wire  1 D! ack1_0 $end
    $var wire  1 D! ack1m $end
    $var wire  1 D! ack2 $end
    $var wire  1 E! ack2_0 $end
    $var wire  1 E! ack2m $end
    $var wire  1 E! ack3 $end
    $var wire  1 F! ack3_0 $end
    $var wire  1 F! ack3m $end
    $var wire  1 F! ack4 $end
    $var wire  1 G! ack4_0 $end
    $var wire  1 G! ack4m $end
    $var wire  1 G! ack5 $end
    $var wire  1 H! ack5_0 $end
    $var wire  1 H! ack5m $end
    $var wire  1 H! ack6 $end
    $var wire  1 I! ack6_0 $end
    $var wire  1 I! ack6m $end
    $var wire  1 I! ack7 $end
    $var wire  1 J! ack7_0 $end
    $var wire  1 J! ack7m $end
    $var wire  1 J! ack8 $end
    $var wire  1 K! ack8_0 $end
    $var wire  1 K! ack8m $end
    $var wire  1 K! ack9 $end
    $var wire  1 L! ack9_0 $end
    $var wire  1 L! ack9m $end
    $var wire  1 a! clk $end
    $var wire  1 i! en0 $end
    $var wire  1 M! en1 $end
    $var wire  1 V! en10 $end
    $var wire  1 N! en2 $end
    $var wire  1 O! en3 $end
    $var wire  1 P! en4 $end
    $var wire  1 Q! en5 $end
    $var wire  1 R! en6 $end
    $var wire  1 S! en7 $end
    $var wire  1 T! en8 $end
    $var wire  1 U! en9 $end
    $var wire  1 h! i_nco_ack $end
    $var wire  1 g! i_nco_req $end
    $var wire  1 d! req0 $end
    $var wire  1 W! req0_0 $end
    $var wire  1 W! req0m $end
    $var wire  1 W! req1 $end
    $var wire  1 `! req10 $end
    $var wire  1 j! req10_0 $end
    $var wire  1 j! req10m $end
    $var wire  1 j! req11 $end
    $var wire  1 j! req11_0 $end
    $var wire  1 j! req11m $end
    $var wire  1 X! req1_0 $end
    $var wire  1 X! req1m $end
    $var wire  1 X! req2 $end
    $var wire  1 Y! req2_0 $end
    $var wire  1 Y! req2m $end
    $var wire  1 Y! req3 $end
    $var wire  1 Z! req3_0 $end
    $var wire  1 Z! req3m $end
    $var wire  1 Z! req4 $end
    $var wire  1 [! req4_0 $end
    $var wire  1 [! req4m $end
    $var wire  1 [! req5 $end
    $var wire  1 \! req5_0 $end
    $var wire  1 \! req5m $end
    $var wire  1 \! req6 $end
    $var wire  1 ]! req6_0 $end
    $var wire  1 ]! req6m $end
    $var wire  1 ]! req7 $end
    $var wire  1 ^! req7_0 $end
    $var wire  1 ^! req7m $end
    $var wire  1 ^! req8 $end
    $var wire  1 _! req8_0 $end
    $var wire  1 _! req8m $end
    $var wire  1 _! req9 $end
    $var wire  1 `! req9_0 $end
    $var wire  1 `! req9m $end
    $var wire  1 b! reset_n $end
    $var wire  1 e! t_angle_ack $end
    $var wire  1 d! t_angle_req $end
   $upscope $end
  $upscope $end
 $upscope $end
$enddefinitions $end


#0
b00000000000000000000000000000000 #
b00000000000000000000000000000000 $
b00000000000000000000000000000000000000000000000000000000000000000000 %
b00000000000000000000000000000000000000000000000000000000000000000000 (
b00000000000000000000000000000000000000000000000000000000000000000000 +
b00000000000000000000000000000000000000000000000000000000000000000000 .
b00000000000000000000000000000000000000000000000000000000000000000000 1
b00000000000000000000000000000000000000000000000000000000000000000000 4
b00000000000000000000000000000000000000000000000000000000000000000000 7
b00000000000000000000000000000000000000000000000000000000000000000000 :
b00000000000000000000000000000000000000000000000000000000000000000000 =
b00000000000000000000000000000000000000000000000000000000000000000000 @
b00000000000000000000000000000000000000000000000000000000000000000000 C
b00000000000000000000000000000000000000000000000000000000000000000000 F
b00000000000000000000000000000000000000000000000000000000000000000000 I
b00000000000000000000000000000000000000000000000000000000000000000000 L
b00000000000000000000000000000000000000000000000000000000000000000000 O
b00000000000000000000000000000000000000000000000000000000000000000000 R
b00000000000000000000000000000000000000000000000000000000000000000000 U
b00000000000000000000000000000000000000000000000000000000000000000000 X
b00000000000000000000000000000000000000000000000000000000000000000000 [
b00000000000000000000000000000000000000000000000000000000000000000000 ^
b00000000000000000000000000000000 a
b000 b
b0000 c
b000000000000000000 d
b000000000000000000 e
b0000000000000000000000000 f
b1111111111010111010011001 g
b000000000000000000 h
b000000000000000000 i
b000000000000000000 j
b000000000000000000 k
b0000000000000000000000000 l
b1111111111101011101001100 m
b000000000000000000 n
b000000000000000000 o
b000000000000000000 p
b000000000000000000 q
b0000000000000000000000000 r
b1111111111110101110100110 s
b000000000000000000 t
b000000000000000000 u
b000000000000000000 v
b000000000000000000 w
b0000000000000000000000000 x
b1111111111111010111010011 y
b000000000000000000 z
b000000000000000000 {
b000000000000000000 |
b000000000000000000 }
b0000000000000000000000000 ~
b1111111111111101011101001 !!
b000000000000000000 "!
b000000000000000000 #!
b000000000000000000 $!
b000000000000000000 %!
b0000000000000000000000000 &!
b1111111111111110101110101 '!
b000000000000000000 (!
b000000000000000000 )!
b000000000000000000 *!
b000000000000000000 +!
b0000000000000000000000000 ,!
b1111111111111111010111010 -!
b000000000000000000 .!
b000000000000000000 /!
b000000000000000000 0!
b000000000000000000 1!
b0000000000000000000000000 2!
b1111111111111111101011101 3!
b000000000000000000 4!
b000000000000000000 5!
b000000000000000000 6!
b000000000000000000 7!
b0000000000000000000000000 8!
b1111111111111111110101111 9!
b000000000000000000 :!
b000000000000000000 ;!
b000000000000000000 <!
b000000000000000000 =!
b000000000000000000 >!
b000000000000000000 ?!
b0000000000000000 @!
b0000000000000000 A!
0B!
0C!
0D!
0E!
0F!
0G!
0H!
0I!
0J!
0K!
0L!
0M!
0N!
0O!
0P!
0Q!
0R!
0S!
0T!
0U!
0V!
0W!
0X!
0Y!
0Z!
0[!
0\!
0]!
0^!
0_!
0`!
1a!
0b!
b00000000000000000000000000000000 c!
0d!
0e!
b00000000000000000000000000000000 f!
0g!
0h!
0i!
0j!
#1
b00000000000000000000000000000000000000011001001000001111111111100000 (
b00000001111111111010111010011001000000000000000000000000000000000000 .
b00000001111111111101011101001100000000000000000000000000000000000000 4
b00000001111111111110101110100110000000000000000000000000000000000000 :
b00000001111111111111010111010011000000000000000000000000000000000000 @
b00000001111111111111101011101001000000000000000000000000000000000000 F
b00000001111111111111110101110101000000000000000000000000000000000000 L
b00000001111111111111111010111010000000000000000000000000000000000000 R
b00000001111111111111111101011101000000000000000000000000000000000000 X
b00000001111111111111111110101111000000000000000000000000000000000000 ^
b00000110010010001111111111100000 a
b001111111111100000 d
b000000011001001000 e
1B!
1C!
1D!
1E!
1F!
1G!
1H!
1I!
1J!
1K!
1L!
0a!
1e!
#2
1a!
#3
0a!
#4
1a!
#5
0a!
#6
1a!
#7
0a!
#8
1a!
#9
0a!
#10
1a!
#11
0a!
#12
1a!
1b!
#13
0a!
#14
1a!
1d!
1h!
1i!
#15
0a!
#16
1M!
1W!
1a!
b00000010000000000000000000000000 c!
#17
0a!
#18
b00000010000000000000000000000000 #
b00000000000000000000000000000000000000011001001000001111111111100000 %
b00000000000000000000000000000000000001001011010100001111111101000011 (
b00000001001000010101000101000111000000101001000111001111111111000111 .
b00010010110101001111111101000011 a
b0001 c
b001111111101000011 d
b000001001011010100 e
b1001000001111111111100000 f
b1001000010101000101000111 g
b001111111111100000 h
b000000011001001000 i
b000000001111111111 j
b000000000000011001 k
1N!
1X!
1a!
b00000100000000000000000000000000 c!
#19
0a!
#20
b00000100000000000000000000000000 #
b00000000000000000000000000000000000001001011010100001111111101000011 %
b00000000000000000000000000000000000001111101010100001111111000000111 (
b00000001001000010101000101000111000000101001000111001111111111000111 +
b00000001010100010101000010101010000001011011010001001111111011111000 .
b00000001000111010010100001111011000000110001000110001111111110110011 4
b00011111010101001111111000000111 a
b0010 c
b001111111000000111 d
b000001111101010100 e
b1010100001111111101000011 f
b1010100010101000010101010 g
b001111111101000011 h
b000001001011010100 i
b000000001111111101 j
b000000000001001011 k
b1000111001111111111000111 l
b1000111010010100001111011 m
b001111111111000111 n
b000000101001000111 o
b000000000111111111 p
b000000000000010100 q
1O!
1Y!
1a!
b00000110000000000000000000000000 c!
#21
0a!
#22
b00000110000000000000000000000000 #
b00000000000000000000000000000000000001111101010100001111111000000111 %
b00000000000000000000000000000000000010101111000010001111110000101111 (
b00000001010100010101000010101010000001011011010001001111111011111000 +
b00000001010100010100111101101110000010001101001100001111110110001010 .
b00000001000111010010100001111011000000110001000110001111111110110011 1
b00000001010001010010011110101100000001100011001110001111111011001011 4
b00000001000110010001010000001101000000110101000101001111111110100111 :
b00101011110000101111110000101111 a
b0011 c
b001111110000101111 d
b000010101111000010 e
b1010100001111111000000111 f
b1010100010100111101101110 g
b001111111000000111 h
b000001111101010100 i
b000000001111111000 j
b000000000001111101 k
b1010001001111111011111000 l
b1010001010010011110101100 m
b001111111011111000 n
b000001011011010001 o
b000000000111111101 p
b000000000000101101 q
b1000110001111111110110011 r
b1000110010001010000001101 s
b001111111110110011 t
b000000110001000110 u
b000000000011111111 v
b000000000000001100 w
1P!
1Z!
1a!
b00001000000000000000000000000000 c!
#23
0a!
#24
b00001000000000000000000000000000 #
b00000000000000000000000000000000000010101111000010001111110000101111 %
b00000000000000000000000000000000000011100000010100001111100110111100 (
b00000001010100010100111101101110000010001101001100001111110110001010 +
b00000001000010010100110110010110000010111110110010001111101110000000 .
b00000001010001010010011110101100000001100011001110001111111011001011 1
b00000001001100010010011000111110000010010101000111001111110101000100 4
b00000001000110010001010000001101000000110101000101001111111110100111 7
b00000001001110010001001100100101000001100111001100001111111010110011 :
b00000001000101010000100111010100000000110111000100001111111110100001 @
b00111000000101001111100110111100 a
b0100 c
b001111100110111100 d
b000011100000010100 e
b1000010001111110000101111 f
b1000010010100110110010110 g
b001111110000101111 h
b000010101111000010 i
b000000001111110000 j
b000000000010101111 k
b1001100001111110110001010 l
b1001100010010011000111110 m
b001111110110001010 n
b000010001101001100 o
b000000000111111011 p
b000000000001000110 q
b1001110001111111011001011 r
b1001110010001001100100101 s
b001111111011001011 t
b000001100011001110 u
b000000000011111110 v
b000000000000011000 w
b1000101001111111110100111 x
b1000101010000100111010100 y
b001111111110100111 z
b000000110101000101 {
b000000000001111111 |
b000000000000000110 }
1Q!
1[!
1a!
b00001010000000000000000000000000 c!
#25
0a!
#26
b00001010000000000000000000000000 #
b00000000000000000000000000000000000011100000010100001111100110111100 %
b00000000000000000000000000000000000100010001000100001111011010101111 (
b00000001000010010100110110010110000010111110110010001111101110000000 +
b00000000010100001010100001010101000011010000101110001111101010011100 .
b00000001001100010010011000111110000010010101000111001111110101000100 1
b00000000110010001101001011001100000010110110111011001111101111011111 4
b00000001001110010001001100100101000001100111001100001111111010110011 7
b00000001000111010001000110011110000010011001000100001111110100011111 :
b00000001000101010000100111010100000000110111000100001111111110100001 =
b00000001001100010000100011100000000001101001001011001111111010100111 @
b00000001000100010000010010111000000000111000000011001111111110011110 F
b01000100010001001111011010101111 a
b0101 c
b001111011010101111 d
b000100010001000100 e
b0010100001111100110111100 f
b0010100001010100001010101 g
b001111100110111100 h
b000011100000010100 i
b000000001111100110 j
b000000000011100000 k
b0110010001111101110000000 l
b0110010001101001011001100 m
b001111101110000000 n
b000010111110110010 o
b000000000111110111 p
b000000000001011111 q
b1000111001111110101000100 r
b1000111010001000110011110 s
b001111110101000100 t
b000010010101000111 u
b000000000011111101 v
b000000000000100101 w
b1001100001111111010110011 x
b1001100010000100011100000 y
b001111111010110011 z
b000001100111001100 {
b000000000000001100 }
b1000100001111111110100001 ~
b1000100010000010010111000 !!
b001111111110100001 "!
b000000110111000100 #!
b000000000000111111 $!
b000000000000000011 %!
1R!
1\!
1a!
b00001100000000000000000000000000 c!
#27
0a!
#28
b00001100000000000000000000000000 #
b00000000000000000000000000000000000100010001000100001111011010101111 %
b00000000000000000000000000000000000101000001001001001111001100001001 (
b00000000010100001010100001010101000011010000101110001111101010011100 +
b00000001000100010100100000010110000100100000011110001111010110011110 .
b00000000110010001101001011001100000010110110111011001111101111011111 1
b00000000101110001101000111101000000011001000111001001111101100000100 4
b00000001000111010001000110011110000010011001000100001111110100011111 7
b00000000111011001110011110000101000010110011000000001111110000001100 :
b00000001001100010000100011100000000001101001001011001111111010100111 =
b00000001000100010000011101001100000010011011000010001111110100001100 @
b00000001000100010000010010111000000000111000000011001111111110011110 C
b00000001001011010000001110111110000001101010001010001111111010100001 F
b00000000000011001111110100010011000000110111100100001111111110011111 L
b01010000010010011111001100001001 a
b0110 c
b001111001100001001 d
b000101000001001001 e
b1000100001111011010101111 f
b1000100010100100000010110 g
b001111011010101111 h
b000100010001000100 i
b000000001111011010 j
b000000000100010001 k
b0101110001111101010011100 l
b0101110001101000111101000 m
b001111101010011100 n
b000011010000101110 o
b000000000111110101 p
b000000000001101000 q
b0111011001111101111011111 r
b0111011001110011110000101 s
b001111101111011111 t
b000010110110111011 u
b000000000011111011 v
b000000000000101101 w
b1000100001111110100011111 x
b1000100010000011101001100 y
b001111110100011111 z
b000010011001000100 {
b000000000001111110 |
b000000000000010011 }
b1001011001111111010100111 ~
b1001011010000001110111110 !!
b001111111010100111 "!
b000001101001001011 #!
b000000000000000110 %!
b0000011001111111110011110 &!
b0000011001111110100010011 '!
b001111111110011110 (!
b000000111000000011 )!
b000000000000011111 *!
b000000000000000001 +!
1S!
1]!
1a!
b00001110000000000000000000000000 c!
#29
0a!
#30
b00001110000000000000000000000000 #
b00000000000000000000000000000000000101000001001001001111001100001001 %
b00000000000000000000000000000000000101110000011101001110111011001101 (
b00000001000100010100100000010110000100100000011110001111010110011110 +
b00000001001001010100010001110000000101010000010101001111000111001000 .
b00000000101110001101000111101000000011001000111001001111101100000100 1
b00000000011110001100110011101010000100011000110011001111011000101110 4
b00000000111011001110011110000101000010110011000000001111110000001100 7
b00000000111001001110011010101010000011000100111110001111101100110110 :
b00000001000100010000011101001100000010011011000010001111110100001100 =
b00000001000000010000011000111001000010110100111110001111101111110110 @
b00000001001011010000001110111110000001101010001010001111111010100001 C
b00000001000010010000001000100011000010011100000001001111110100000011 F
b00000000000011001111110100010011000000110111100100001111111110011111 I
b00000000001010001111110000010110000001101001101011001111111010100100 L
b00000001100100010000000011100101000000110111110011001111111110011111 R
b01011100000111011110111011001101 a
b0111 c
b001110111011001101 d
b000101110000011101 e
b1001001001111001100001001 f
b1001001010100010001110000 g
b001111001100001001 h
b000101000001001001 i
b000000001111001100 j
b000000000101000001 k
b0011110001111010110011110 l
b0011110001100110011101010 m
b001111010110011110 n
b000100100000011110 o
b000000000111101011 p
b000000000010010000 q
b0111001001111101100000100 r
b0111001001110011010101010 s
b001111101100000100 t
b000011001000111001 u
b000000000000110010 w
b1000000001111110000001100 x
b1000000010000011000111001 y
b001111110000001100 z
b000010110011000000 {
b000000000000010110 }
b1000010001111110100001100 ~
b1000010010000001000100011 !!
b001111110100001100 "!
b000010011011000010 #!
b000000000000001001 %!
b0001010001111111010100001 &!
b0001010001111110000010110 '!
b001111111010100001 (!
b000001101010001010 )!
b000000000000000011 +!
b1100100001111111110011111 ,!
b1100100010000000011100101 -!
b001111111110011111 .!
b000000110111100100 /!
b000000000000001111 0!
1T!
1^!
1a!
b00010000000000000000000000000000 c!
#31
0a!
#32
b00010000000000000000000000000000 #
b00000000000000000000000000000000000101110000011101001110111011001101 %
b00000000000000000000000000000000000110011110111001001110100111111111 (
b00000001001001010100010001110000000101010000010101001111000111001000 +
b00000000011101001001110101100110000101100001100010001111000000111101 .
b00000000011110001100110011101010000100011000110011001111011000101110 1
b00000000010101001100100100010100000101001000110010001111001001110000 4
b00000000111001001110011010101010000011000100111110001111101100110110 7
b00000000110011001110000111010100000100010100111101001111011001110100 :
b00000001000000010000011000111001000010110100111110001111101111110110 =
b00000000111110001111000100001001000011000011000001001111101101001110 @
b00000001000010010000001000100011000010011100000001001111110100000011 C
b00000000111110001111011011011111000010110100000000001111110000000001 F
b00000000001010001111110000010110000001101001101011001111111010100100 I
b00000000000001001111101001111000000010011011100010001111110100000111 L
b00000001100100010000000011100101000000110111110011001111111110011111 O
b00000001101011001111111111101010000001101001111010001111111010100011 R
b00000001110011010000000001000010000000110111111010001111111110011111 X
b01100111101110011110100111111111 a
b1000 c
b001110100111111111 d
b000110011110111001 e
b0011101001110111011001101 f
b0011101001001110101100110 g
b001110111011001101 h
b000101110000011101 i
b000000001110111011 j
b000000000101110000 k
b0010101001111000111001000 l
b0010101001100100100010100 m
b001111000111001000 n
b000101010000010101 o
b000000000111100011 p
b000000000010101000 q
b0110011001111011000101110 r
b0110011001110000111010100 s
b001111011000101110 t
b000100011000110011 u
b000000000011110110 v
b000000000001000110 w
b0111110001111101100110110 x
b0111110001111000100001001 y
b001111101100110110 z
b000011000100111110 {
b000000000001111101 |
b000000000000011000 }
b0111110001111101111110110 ~
b0111110001111011011011111 !!
b001111101111110110 "!
b000010110100111110 #!
b000000000000111110 $!
b000000000000001011 %!
b0000001001111110100000011 &!
b0000001001111101001111000 '!
b001111110100000011 (!
b000010011100000001 )!
b000000000000000100 +!
b1101011001111111010100100 ,!
b1101011001111111111101010 -!
b001111111010100100 .!
b000001101001101011 /!
b000000000000000001 1!
b1110011001111111110011111 2!
b1110011010000000001000010 3!
b001111111110011111 4!
b000000110111110011 5!
b000000000000000111 6!
1U!
1_!
1a!
b00010010000000000000000000000000 c!
#33
0a!
#34
b00010010000000000000000000000000 #
b00000000000000000000000000000000000110011110111001001110100111111111 %
b00000000000000000000000000000000000111001100010100001110010010100000 (
b00000000011101001001110101100110000101100001100010001111000000111101 +
b00000000111001001001100010011000000110010000010010001110101110011101 .
b00000000010101001100100100010100000101001000110010001111001001110000 1
b00000001100010010001100011110001000101101001000010001110111110001101 4
b00000000110011001110000111010100000100010100111101001111011001110100 7
b00000000110010001101111000010110000101000101000000001111001011000010 :
b00000000111110001111000100001001000011000011000001001111101101001110 =
b00000000111101001110110001000111000100010011000010001111011010010110 @
b00000000111110001111011011011111000010110100000000001111110000000001 C
b00000001000001010000000001100101000011000011111111001111101101000010 F
b00000000000001001111101001111000000010011011100010001111110100000111 I
b00000000000000001111100101110110000010110011100001001111110000000110 L
b00000001101011001111111111101010000001101001111010001111111010100011 O
b00000001100010001111111001001101000010011011110001001111110100000101 R
b00000001110011010000000001000010000000110111111010001111111110011111 U
b00000001111010001111111101000110000001101010000001001111111010100011 X
b00000001111010001111111111110000000000110111111101001111111110011111 ^
b01110011000101001110010010100000 a
b1001 c
b001110010010100000 d
b000111001100010100 e
b0111001001110100111111111 f
b0111001001001100010011000 g
b001110100111111111 h
b000110011110111001 i
b000000001110100111 j
b000000000110011110 k
b1100010001111000000111101 l
b1100010010001100011110001 m
b001111000000111101 n
b000101100001100010 o
b000000000111100000 p
b000000000010110000 q
b0110010001111001001110000 r
b0110010001101111000010110 s
b001111001001110000 t
b000101001000110010 u
b000000000011110010 v
b000000000001010010 w
b0111101001111011001110100 x
b0111101001110110001000111 y
b001111011001110100 z
b000100010100111101 {
b000000000001111011 |
b000000000000100010 }
b1000001001111101101001110 ~
b1000001010000000001100101 !!
b001111101101001110 "!
b000011000011000001 #!
b000000000000001100 %!
b0000000001111110000000001 &!
b0000000001111100101110110 '!
b001111110000000001 (!
b000010110100000000 )!
b000000000000000101 +!
b1100010001111110100000111 ,!
b1100010001111111001001101 -!
b001111110100000111 .!
b000010011011100010 /!
b000000000000000010 1!
b1111010001111111010100011 2!
b1111010001111111101000110 3!
b001111111010100011 4!
b000001101001111010 5!
b1111010001111111110011111 8!
b1111010001111111111110000 9!
b001111111110011111 :!
b000000110111111010 ;!
b000000000000000011 <!
1V!
1`!
1a!
b00010100000000000000000000000000 c!
#35
0a!
#36
b00010100000000000000000000000000 #
b00000110111111100111111111001111 $
b00000000000000000000000000000000000111001100010100001110010010100000 %
b00000000000000000000000000000000000111111000101000001101111010110100 (
b00000000111001001001100010011000000110010000010010001110101110011101 +
b00000000010100001001001100111001000110111110000010001110011001101100 .
b00000001100010010001100011110001000101101001000010001110111110001101 1
b00000000010010001100001011101001000110001000111011001110110001100101 4
b00000000110010001101111000010110000101000101000000001111001011000010 7
b00000001000010010000001111100111000101101100110001001110111100110011 :
b00000000111101001110110001000111000100010011000010001111011010010110 =
b00000001000000001111110011101111000101000110111001001111001010011010 @
b00000001000001010000000001100101000011000011111111001111101101000010 C
b00000001000010001111101110101101000100010011111111001111011010000101 F
b00000000000000001111100101110110000010110011100001001111110000000110 I
b00000001111111001111110111001101000011000100011110001111101100111100 L
b00000001100010001111111001001101000010011011110001001111110100000101 O
b00000001100001001111110101001100000010110011110000001111110000000100 R
b00000001111010001111111101000110000001101010000001001111111010100011 U
b00000001110001001111110110101000000010011011111000001111110100000100 X
b00000001111010001111111111110000000000110111111101001111111110011111 [
b00000000000001001111111001010010000001101001111110001111111010100011 ^
b01111110001010001101111010110100 a
b1010 c
b001101111010110100 d
b000111111000101000 e
b0010100001110010010100000 f
b0010100001001001100111001 g
b001110010010100000 h
b000111001100010100 i
b000000001110010010 j
b000000000111001100 k
b0010010001110101110011101 l
b0010010001100001011101001 m
b001110101110011101 n
b000110010000010010 o
b000000000111010111 p
b000000000011001000 q
b1000010001110111110001101 r
b1000010010000001111100111 s
b001110111110001101 t
b000101101001000010 u
b000000000011101111 v
b000000000001011010 w
b1000000001111001011000010 x
b1000000001111110011101111 y
b001111001011000010 z
b000101000101000000 {
b000000000001111001 |
b000000000000101000 }
b1000010001111011010010110 ~
b1000010001111101110101101 !!
b001111011010010110 "!
b000100010011000010 #!
b000000000000111101 $!
b000000000000010001 %!
b1111111001111101101000010 &!
b1111111001111110111001101 '!
b001111101101000010 (!
b000011000011111111 )!
b000000000000000110 +!
b1100001001111110000000110 ,!
b1100001001111110101001100 -!
b001111110000000110 .!
b000010110011100001 /!
b1110001001111110100000101 2!
b1110001001111110110101000 3!
b001111110100000101 4!
b000010011011110001 5!
b000000000000000001 7!
b0000001001111111010100011 8!
b0000001001111111001010010 9!
b001111111010100011 :!
b000001101010000001 ;!
b001111111110011111 >!
b000000110111111101 ?!
b0111111111001111 @!
b0000011011111110 A!
1a!
b00010110000000000000000000000000 c!
b00000110111111100111111111001111 f!
1g!
1j!
#37
0a!
