examples/default/nco.vcd
$date
	Thu Feb 15 15:35:42 2024
$end
$version
	Icarus Verilog
$end
$timescale
	1ns
$end
$scope module tb $end
$var wire 1 ! i_nco_ack $end
$var wire 1 " t_angle_req $end
$var wire 1 # t_angle_ack $end
$var wire 1 $ i_nco_req $end
$var wire 32 % i_nco_dat [31:0] $end
$var reg 1 & clk $end
$var reg 1 ' reset_n $end
$var reg 32 ( t_angle_dat [31:0] $end
$scope module u0 $end
$var wire 1 & clk $end
$var wire 32 ) dat0_nxt [31:0] $end
$var wire 1 ! i_nco_ack $end
$var wire 32 * i_nco_dat [31:0] $end
$var wire 32 + node1_angle [31:0] $end
$var wire 1 ' reset_n $end
$var wire 32 , t_angle_dat [31:0] $end
$var wire 1 " t_angle_req $end
$var wire 1 # t_angle_ack $end
$var wire 16 - redata11 [15:0] $end
$var wire 18 . recalc11 [17:0] $end
$var wire 18 / re_shift8 [17:0] $end
$var wire 18 0 re_shift7 [17:0] $end
$var wire 18 1 re_shift6 [17:0] $end
$var wire 18 2 re_shift5 [17:0] $end
$var wire 18 3 re_shift4 [17:0] $end
$var wire 18 4 re_shift3 [17:0] $end
$var wire 18 5 re_shift2 [17:0] $end
$var wire 18 6 re_shift1 [17:0] $end
$var wire 18 7 re_shift0 [17:0] $end
$var wire 18 8 re8 [17:0] $end
$var wire 18 9 re7 [17:0] $end
$var wire 18 : re6 [17:0] $end
$var wire 18 ; re5 [17:0] $end
$var wire 18 < re4 [17:0] $end
$var wire 18 = re3 [17:0] $end
$var wire 18 > re2 [17:0] $end
$var wire 18 ? re1 [17:0] $end
$var wire 18 @ re0 [17:0] $end
$var wire 18 A node1_reSwap [17:0] $end
$var wire 3 B node1_phase [2:0] $end
$var wire 18 C node1_imSwap [17:0] $end
$var wire 4 D node1_addr [3:0] $end
$var wire 16 E imdata11 [15:0] $end
$var wire 18 F imcalc11 [17:0] $end
$var wire 18 G im_shift8 [17:0] $end
$var wire 18 H im_shift7 [17:0] $end
$var wire 18 I im_shift6 [17:0] $end
$var wire 18 J im_shift5 [17:0] $end
$var wire 18 K im_shift4 [17:0] $end
$var wire 18 L im_shift3 [17:0] $end
$var wire 18 M im_shift2 [17:0] $end
$var wire 18 N im_shift1 [17:0] $end
$var wire 18 O im_shift0 [17:0] $end
$var wire 18 P im8 [17:0] $end
$var wire 18 Q im7 [17:0] $end
$var wire 18 R im6 [17:0] $end
$var wire 18 S im5 [17:0] $end
$var wire 18 T im4 [17:0] $end
$var wire 18 U im3 [17:0] $end
$var wire 18 V im2 [17:0] $end
$var wire 18 W im1 [17:0] $end
$var wire 18 X im0 [17:0] $end
$var wire 1 $ i_nco_req $end
$var wire 1 Y en9 $end
$var wire 1 Z en8 $end
$var wire 1 [ en7 $end
$var wire 1 \ en6 $end
$var wire 1 ] en5 $end
$var wire 1 ^ en4 $end
$var wire 1 _ en3 $end
$var wire 1 ` en2 $end
$var wire 1 a en10 $end
$var wire 1 b en1 $end
$var wire 1 c en0 $end
$var wire 68 d dat9_nxt [67:0] $end
$var wire 68 e dat9 [67:0] $end
$var wire 68 f dat8_nxt [67:0] $end
$var wire 68 g dat8 [67:0] $end
$var wire 68 h dat7_nxt [67:0] $end
$var wire 68 i dat7 [67:0] $end
$var wire 68 j dat6_nxt [67:0] $end
$var wire 68 k dat6 [67:0] $end
$var wire 68 l dat5_nxt [67:0] $end
$var wire 68 m dat5 [67:0] $end
$var wire 68 n dat4_nxt [67:0] $end
$var wire 68 o dat4 [67:0] $end
$var wire 68 p dat3_nxt [67:0] $end
$var wire 68 q dat3 [67:0] $end
$var wire 68 r dat2_nxt [67:0] $end
$var wire 68 s dat2 [67:0] $end
$var wire 68 t dat1_nxt [67:0] $end
$var wire 32 u dat11 [31:0] $end
$var wire 68 v dat10_nxt [67:0] $end
$var wire 68 w dat10 [67:0] $end
$var wire 68 x dat1 [67:0] $end
$var wire 32 y dat0 [31:0] $end
$var wire 25 z beta_calc8 [24:0] $end
$var wire 25 { beta_calc7 [24:0] $end
$var wire 25 | beta_calc6 [24:0] $end
$var wire 25 } beta_calc5 [24:0] $end
$var wire 25 ~ beta_calc4 [24:0] $end
$var wire 25 !" beta_calc3 [24:0] $end
$var wire 25 "" beta_calc2 [24:0] $end
$var wire 25 #" beta_calc1 [24:0] $end
$var wire 25 $" beta_calc0 [24:0] $end
$var wire 25 %" beta8 [24:0] $end
$var wire 25 &" beta7 [24:0] $end
$var wire 25 '" beta6 [24:0] $end
$var wire 25 (" beta5 [24:0] $end
$var wire 25 )" beta4 [24:0] $end
$var wire 25 *" beta3 [24:0] $end
$var wire 25 +" beta2 [24:0] $end
$var wire 25 ," beta1 [24:0] $end
$var wire 25 -" beta0 [24:0] $end
$var reg 32 ." dat0_r [31:0] $end
$var reg 68 /" dat10_r [67:0] $end
$var reg 68 0" dat1_r [67:0] $end
$var reg 68 1" dat2_r [67:0] $end
$var reg 68 2" dat3_r [67:0] $end
$var reg 68 3" dat4_r [67:0] $end
$var reg 68 4" dat5_r [67:0] $end
$var reg 68 5" dat6_r [67:0] $end
$var reg 68 6" dat7_r [67:0] $end
$var reg 68 7" dat8_r [67:0] $end
$var reg 68 8" dat9_r [67:0] $end
$var reg 32 9" ncolut [31:0] $end
$scope module uctrl $end
$var wire 1 :" ack0 $end
$var wire 1 ;" ack0_0 $end
$var wire 1 <" ack0m $end
$var wire 1 =" ack1 $end
$var wire 1 >" ack10 $end
$var wire 1 ?" ack10_0 $end
$var wire 1 @" ack10m $end
$var wire 1 A" ack11 $end
$var wire 1 B" ack11_0 $end
$var wire 1 C" ack11m $end
$var wire 1 D" ack1_0 $end
$var wire 1 E" ack1m $end
$var wire 1 F" ack2 $end
$var wire 1 G" ack2_0 $end
$var wire 1 H" ack2m $end
$var wire 1 I" ack3 $end
$var wire 1 J" ack3_0 $end
$var wire 1 K" ack3m $end
$var wire 1 L" ack4 $end
$var wire 1 M" ack4_0 $end
$var wire 1 N" ack4m $end
$var wire 1 O" ack5 $end
$var wire 1 P" ack5_0 $end
$var wire 1 Q" ack5m $end
$var wire 1 R" ack6 $end
$var wire 1 S" ack6_0 $end
$var wire 1 T" ack6m $end
$var wire 1 U" ack7 $end
$var wire 1 V" ack7_0 $end
$var wire 1 W" ack7m $end
$var wire 1 X" ack8 $end
$var wire 1 Y" ack8_0 $end
$var wire 1 Z" ack8m $end
$var wire 1 [" ack9 $end
$var wire 1 \" ack9_0 $end
$var wire 1 ]" ack9m $end
$var wire 1 & clk $end
$var wire 1 c en0 $end
$var wire 1 b en1 $end
$var wire 1 a en10 $end
$var wire 1 ` en2 $end
$var wire 1 _ en3 $end
$var wire 1 ^ en4 $end
$var wire 1 ] en5 $end
$var wire 1 \ en6 $end
$var wire 1 [ en7 $end
$var wire 1 Z en8 $end
$var wire 1 Y en9 $end
$var wire 1 ! i_nco_ack $end
$var wire 1 $ i_nco_req $end
$var wire 1 ^" req0 $end
$var wire 1 _" req0_0 $end
$var wire 1 `" req1 $end
$var wire 1 a" req10 $end
$var wire 1 b" req10_0 $end
$var wire 1 c" req11 $end
$var wire 1 d" req11_0 $end
$var wire 1 e" req11m $end
$var wire 1 f" req1_0 $end
$var wire 1 g" req2 $end
$var wire 1 h" req2_0 $end
$var wire 1 i" req3 $end
$var wire 1 j" req3_0 $end
$var wire 1 k" req4 $end
$var wire 1 l" req4_0 $end
$var wire 1 m" req5 $end
$var wire 1 n" req5_0 $end
$var wire 1 o" req6 $end
$var wire 1 p" req6_0 $end
$var wire 1 q" req7 $end
$var wire 1 r" req7_0 $end
$var wire 1 s" req8 $end
$var wire 1 t" req8_0 $end
$var wire 1 u" req9 $end
$var wire 1 v" req9_0 $end
$var wire 1 ' reset_n $end
$var wire 1 # t_angle_ack $end
$var wire 1 " t_angle_req $end
$var reg 1 w" req0m $end
$var reg 1 x" req10m $end
$var reg 1 y" req1m $end
$var reg 1 z" req2m $end
$var reg 1 {" req3m $end
$var reg 1 |" req4m $end
$var reg 1 }" req5m $end
$var reg 1 ~" req6m $end
$var reg 1 !# req7m $end
$var reg 1 "# req8m $end
$var reg 1 ## req9m $end
$upscope $end
$upscope $end
$upscope $end
$enddefinitions $end
$comment Show the parameter values. $end
$dumpall
$end
#0
$dumpvars
0##
0"#
0!#
0~"
0}"
0|"
0{"
0z"
0y"
0x"
0w"
0v"
0u"
0t"
0s"
0r"
0q"
0p"
0o"
0n"
0m"
0l"
0k"
0j"
0i"
0h"
0g"
0f"
0e"
0d"
0c"
0b"
0a"
0`"
0_"
1^"
1]"
1\"
1["
1Z"
1Y"
1X"
1W"
1V"
1U"
1T"
1S"
1R"
1Q"
1P"
1O"
1N"
1M"
1L"
1K"
1J"
1I"
1H"
1G"
1F"
1E"
1D"
1C"
1B"
1A"
1@"
1?"
1>"
1="
1<"
1;"
1:"
bx 9"
bx 8"
bx 7"
bx 6"
bx 5"
bx 4"
bx 3"
bx 2"
bx 1"
bx 0"
bx /"
bx ."
bx -"
bx ,"
bx +"
bx *"
bx )"
bx ("
bx '"
bx &"
bx %"
bx $"
bx #"
bx ""
bx !"
bx ~
bx }
bx |
bx {
bx z
bx y
bx x
bx w
bzxxxxxxxxxxxxxxxxxxxxxxxxxxxxxxxxxxxxxxxxxxxxxxxxxxxxxxxxxxxxx v
bx u
bzxxxxxxxxxxxxxxxxxxxxxxxxxxxxxxxxxxxxxxxxxxxxxxxxxxxxxxxxxxxxx t
bx s
bzxxxxxxxxxxxxxxxxxxxxxxxxxxxxxxxxxxxxxxxxxxxxxxxxxxxxxxxxxxxxx r
bx q
bzxxxxxxxxxxxxxxxxxxxxxxxxxxxxxxxxxxxxxxxxxxxxxxxxxxxxxxxxxxxxx p
bx o
bzxxxxxxxxxxxxxxxxxxxxxxxxxxxxxxxxxxxxxxxxxxxxxxxxxxxxxxxxxxxxx n
bx m
bzxxxxxxxxxxxxxxxxxxxxxxxxxxxxxxxxxxxxxxxxxxxxxxxxxxxxxxxxxxxxx l
bx k
bzxxxxxxxxxxxxxxxxxxxxxxxxxxxxxxxxxxxxxxxxxxxxxxxxxxxxxxxxxxxxx j
bx i
bzxxxxxxxxxxxxxxxxxxxxxxxxxxxxxxxxxxxxxxxxxxxxxxxxxxxxxxxxxxxxx h
bx g
bzxxxxxxxxxxxxxxxxxxxxxxxxxxxxxxxxxxxxxxxxxxxxxxxxxxxxxxxxxxxxx f
bx e
bzxxxxxxxxxxxxxxxxxxxxxxxxxxxxxxxxxxxxxxxxxxxxxxxxxxxxxxxxxxxxx d
1c
0b
0a
0`
0_
0^
0]
0\
0[
0Z
0Y
bx X
bx W
bx V
bx U
bx T
bx S
bx R
bx Q
bx P
b0xxxxxxxxxxxx O
b0xxxxxxxxxxx N
b0xxxxxxxxxx M
b0xxxxxxxxx L
b0xxxxxxxx K
b0xxxxxxx J
b0xxxxxx I
b0xxxxx H
b0xxxx G
bx F
bx E
bx D
b0xxxxxxxxxxxxxxxx C
bx B
b0xxxxxxxxxxxxxxxx A
bx @
bx ?
bx >
bx =
bx <
bx ;
bx :
bx 9
bx 8
b0xxxxxxxxxxxx 7
b0xxxxxxxxxxx 6
b0xxxxxxxxxx 5
b0xxxxxxxxx 4
b0xxxxxxxx 3
b0xxxxxxx 2
b0xxxxxx 1
b0xxxxx 0
b0xxxx /
bx .
bx -
b0 ,
bx +
bx *
b0 )
b0 (
0'
1&
bx %
0$
1#
1"
1!
$end
#5
0&
#10
b1000100011101111 A
b1101100000111110 C
b10001000111011111101100000111110 9"
b1011 D
b10 B
bz0011110001001101010111100001101100000111110110111011100010000 t
b1010110011110001001101010111100 +
b1010110011110001001101010111100 y
b1010110011110001001101010111100 ."
1&
b1010110011110001001101010111100 )
b1010110011110001001101010111100 (
b1010110011110001001101010111100 ,
#15
0&
#20
b111001100010100 A
b1110010010100000 C
b1110011000101001110010010100000 9"
b1001 D
b101 B
bz0111100010011010101111000110001101101011111111000110011101011 t
b10101100111100010011010101111000 +
b10101100111100010011010101111000 y
b10101100111100010011010101111000 ."
1&
b10101100111100010011010101111000 )
b10101100111100010011010101111000 (
b10101100111100010011010101111000 ,
#25
0&
#30
b1111111101000011 A
b1001011010100 C
b10010110101001111111101000011 9"
b1 D
b0 B
bz1011010011101000000110100000001001011010100001111111101000011 t
b11011010011101000000110100 +
b11011010011101000000110100 y
b11011010011101000000110100 ."
1&
b11011010011101000000110100 )
b11011010011101000000110100 (
b11011010011101000000110100 ,
#35
0&
#40
b1001001101100001 A
b1101000101000011 C
b10010011011000011101000101000011 9"
b1100 D
1b
b10 B
bz1111000100110101011110000001101000101000011110110110010011110 t
1`"
1_"
1w"
b1011001111000100110101011110000 +
b1011001111000100110101011110000 y
b1011001111000100110101011110000 ."
1&
b1011001111000100110101011110000 )
b1011001111000100110101011110000 (
b1011001111000100110101011110000 ,
1'
#45
0&
#50
b101110000011101 A
b1110111011001101 C
b1011100000111011110111011001101 9"
bz1000011111011111000000101001101111011110101110110100101011001 r
b1000011111011111000000101 $"
b110110110010 7
b1101000101 O
b111 D
1`
b1000011110110110010011110 -"
b110110110010011110 @
b1101000101000011 X
b101 B
bz0010110110000010110101100110001000100110010111010001111100010 t
1g"
1f"
1y"
bz1111000100110101011110000001101000101000011110110110010011110 x
bz1111000100110101011110000001101000101000011110110110010011110 0"
b10110000010110110000010110101100 +
b10110000010110110000010110101100 y
b10110000010110110000010110101100 ."
1&
b10110000010110110000010110101100 )
b10110000010110110000010110101100 (
b10110000010110110000010110101100 ,
#55
0&
#60
b1111110000101111 A
b10101111000010 C
b101011110000101111110000101111 9"
b11 D
b110010110101001001111011 $"
b111010001111 7
b110001000100 O
bz0110010110101001001111011110000001010100011111011000000100110 r
bz1110101111001001000001101001110010111000111110110011110011100 p
b1110101111001001000001101 #"
b11011010010 6
b110111101 N
1_
b0 B
bz0110100111010000001101000000010101111000010001111110000101111 t
b110010111010001111100010 -"
b111010001111100010 @
b110001000100110010 X
b1110101110110100101011001 ,"
b110110100101011001 ?
b1101111011110101 W
1i"
1h"
1z"
b110110100111010000001101000 +
b110110100111010000001101000 y
b110110100111010000001101000 ."
bz0010110110000010110101100110001000100110010111010001111100010 x
bz0010110110000010110101100110001000100110010111010001111100010 0"
bz1000011111011111000000101001101111011110101110110100101011001 s
bz1000011111011111000000101001101111011110101110110100101011001 1"
1&
b110110100111010000001101000 )
b110110100111010000001101000 (
b110110100111010000001101000 ,
#65
0&
#70
b1010011100101110 A
b1100000111001111 C
b10100111001011101100000111001111 9"
bz1000111110111101111110110001110100100101110110110011010110111 n
b1000111110111101111110110 ""
b1101100111 5
b11100101 M
b100011111000011101110010 #"
b11101100000 6
b11000000101 N
bz0100011111000011101110010101111101101000011111011011000101011 p
b1000010010100110110010110 $"
b1111110000 7
b10101111 O
bz1000010010100110110010110000010111110110010001111101110000000 r
b1110 D
1^
b1000111110110011110011100 +"
b110110011110011100 >
b1110010111000111 V
b100011111011000000100110 ,"
b111011000000100110 ?
b110000001010100011 W
b1000010001111110000101111 -"
b1111110000101111 @
b10101111000010 X
b10 B
bz1010011000011101100100100001100000111001111110101100011010001 t
1k"
1j"
1{"
bz1110101111001001000001101001110010111000111110110011110011100 q
bz1110101111001001000001101001110010111000111110110011110011100 2"
bz0110010110101001001111011110000001010100011111011000000100110 s
bz0110010110101001001111011110000001010100011111011000000100110 1"
bz0110100111010000001101000000010101111000010001111110000101111 x
bz0110100111010000001101000000010101111000010001111110000101111 0"
b1011101010011000011101100100100 +
b1011101010011000011101100100100 y
b1011101010011000011101100100100 ."
1&
b1011101010011000011101100100100 )
b1011101010011000011101100100100 (
b1011101010011000011101100100100 ,
#75
0&
#80
b101000001001001 A
b1111001100001001 C
b1010000010010011111001100001001 9"
b110 D
b1001111111010101000111000 $"
b110101100011 7
b1100000111 O
bz1001111111010101000111000001100111100110010110101010111001010 r
b110010001101001011001100 #"
b111110111 6
b1011111 N
bz0110010001101001011001100000010110110111011001111101111011111 p
b1000011111100101010000101 ""
b1110110110 5
b1011111011 M
bz1000011111100101010000101101111111011111001111011001100110000 n
bz0101110110101110010001010001110011101111011110110011100101011 l
b101110110101110010001010 !"
b110110011 4
b1110100 L
1]
b101 B
bz1110001001101010111100000110000110011110110111010111110110110 t
b1001111110101100011010001 -"
b110101100011010001 @
b1100000111001111 X
b110010001111101110000000 ,"
b1111101110000000 ?
b10111110110010 W
b1000011111011011000101011 +"
b111011011000101011 >
b101111101101000011 V
b101110110110011010110111 *"
b110110011010110111 =
b1110100100101110 U
1m"
1l"
1|"
b10110011110001001101010111100000 +
b10110011110001001101010111100000 y
b10110011110001001101010111100000 ."
bz1010011000011101100100100001100000111001111110101100011010001 x
bz1010011000011101100100100001100000111001111110101100011010001 0"
bz1000010010100110110010110000010111110110010001111101110000000 s
bz1000010010100110110010110000010111110110010001111101110000000 1"
bz0100011111000011101110010101111101101000011111011011000101011 q
bz0100011111000011101110010101111101101000011111011011000101011 2"
bz1000111110111101111110110001110100100101110110110011010110111 o
bz1000111110111101111110110001110100100101110110110011010110111 3"
1&
b10110011110001001101010111100000 )
b10110011110001001101010111100000 (
b10110011110001001101010111100000 ,
#85
0&
#90
b1111011010101111 A
b100010001000100 C
b1000100010001001111011010101111 9"
b101 D
bz1111011110110110001000010001110100001010100110110011011110010 j
b1111011110110110001000010 ~
b11011001 3
b111001 K
b1111001111011110101011101 !"
b111011001 4
b101111111 L
bz1111001111011110101011101110000000011010010111011000110110001 l
b111011001110011110000101 ""
b11111011 5
b101101 M
bz0111011001110011110000101000010110011000000001111110000001100 n
b110010110010110100010110 #"
b11010101011 6
b110011110 N
bz0110010110010110100010110001100100010000111110101011101101000 p
b1110111000000000100011101 $"
b111010111110 7
b110000110011 O
bz1110111000000000100011101110001101110110100111010001110000011 r
1\
b1111011110110011100101011 )"
b110110011100101011 <
b1110011101111011 T
b1111001111011001100110000 *"
b111011001100110000 =
b101111111011111001 U
b111011001111101111011111 +"
b1111101111011111 >
b10110110111011 V
b110010110101010111001010 ,"
b110101010111001010 ?
b1100111100110010 W
b1110110111010111110110110 -"
b111010111110110110 @
b110000110011110110 X
b0 B
bz0001111010111000010011100000100010001000100001111011010101111 t
1o"
1n"
1}"
bz0101110110101110010001010001110011101111011110110011100101011 m
bz0101110110101110010001010001110011101111011110110011100101011 4"
bz1000011111100101010000101101111111011111001111011001100110000 o
bz1000011111100101010000101101111111011111001111011001100110000 3"
bz0110010001101001011001100000010110110111011001111101111011111 q
bz0110010001101001011001100000010110110111011001111101111011111 2"
bz1001111111010101000111000001100111100110010110101010111001010 s
bz1001111111010101000111000001100111100110010110101010111001010 1"
bz1110001001101010111100000110000110011110110111010111110110110 x
bz1110001001101010111100000110000110011110110111010111110110110 0"
b1010001111010111000010011100 +
b1010001111010111000010011100 y
b1010001111010111000010011100 ."
1&
b1010001111010111000010011100 )
b1010001111010111000010011100 (
b1010001111010111000010011100 ,
#95
0&
#100
b1011100101011111 A
b1011000001111101 C
b10110000011111011011100101011111 9"
b1111 D
b1000100010100100000010110 $"
b1111011010 7
b100010001 O
bz1000100010100100000010110000100100000011110001111010110011110 r
b110100110111101011001111 #"
b11101000111 6
b11000110111 N
bz0110100110111101011001111110001010001101101111010100110111010 p
b111110100001100001110 ""
b1101010111 5
b11001000 M
bz0000111110100001100001110001100010100110000110101100000110000 n
b1000000010000011000111001 !"
b1111110 4
b10110 L
bz1000000010000011000111001000010110100111110001111101111110110 l
b1010010111011011011001000 ~
b11101100 3
b11000000 K
bz1010010111011011011001000110000000110111110111011000011110001 j
bz1010100110110100101111101001110100011000000110110011011010101 h
b1010100110110100101111101 }
b1101100 2
b11101 J
1[
b11 B
bz0101101100000101101011000001011000001111101110100011010100000 t
b1000100001111011010101111 -"
b1111011010101111 @
b100010001000100 X
b110100111010001110000011 ,"
b111010001110000011 ?
b110001101110110100 W
b111110101011101101000 +"
b110101011101101000 >
b1100100010000111 V
b1000000001111110000001100 *"
b1111110000001100 =
b10110011000000 U
b1010010111011000110110001 )"
b111011000110110001 <
b110000000011010010 T
b1010100110110011011110010 ("
b110110011011110010 ;
b1110100001010100 S
1q"
1p"
1~"
b1100000101101100000101101011000 +
b1100000101101100000101101011000 y
b1100000101101100000101101011000 ."
bz0001111010111000010011100000100010001000100001111011010101111 x
bz0001111010111000010011100000100010001000100001111011010101111 0"
bz1110111000000000100011101110001101110110100111010001110000011 s
bz1110111000000000100011101110001101110110100111010001110000011 1"
bz0110010110010110100010110001100100010000111110101011101101000 q
bz0110010110010110100010110001100100010000111110101011101101000 2"
bz0111011001110011110000101000010110011000000001111110000001100 o
bz0111011001110011110000101000010110011000000001111110000001100 3"
bz1111001111011110101011101110000000011010010111011000110110001 m
bz1111001111011110101011101110000000011010010111011000110110001 4"
bz1111011110110110001000010001110100001010100110110011011110010 k
bz1111011110110110001000010001110100001010100110110011011110010 5"
1&
b1100000101101100000101101011000 )
b1100000101101100000101101011000 (
b1100000101101100000101101011000 ,
#105
0&
#110
b11100000010100 A
b1111100110111100 C
b111000000101001111100110111100 9"
b100 D
bz1000000110110100000011011001110100011110110110110011011000111 f
b1000000110110100000011011 |
b110110 1
b1110 I
b111110111010111001100110 }
b1110110 2
b1100000 J
bz0111110111010111001100110110000000101001000111011000101010001 h
b111110001111011011011111 ~
b111110 3
b1011 K
bz0111110001111011011011111000010110100000000001111110000000001 j
b110000110100111000000011 !"
b110101100 4
b1100010 L
bz0110000110100111000000011001100001110000100110101100010010010 l
b1101101111011111000010100 ""
b1110101001 5
b1100010100 M
bz1101101111011111000010100110001100000010110111010011010100110 n
b11110001100110011101010 #"
b111101011 6
b10010000 N
bz0011110001100110011101010000100011000110011001111011000101110 p
b1111101111001100000000111 $"
b110100011010 7
b1011000001 O
bz1111101111001100000000111001011110110010111110100001111011111 r
1Z
b1000000110110011011010101 '"
b110110011011010101 :
b1110100011000000 R
b111110111011000011110001 ("
b111011000011110001 ;
b110000000110111110 S
b111110001111101111110110 )"
b1111101111110110 <
b10110100111110 T
b110000110101100000110000 *"
b110101100000110000 =
b1100010100110000 U
b1101101111010100110111010 +"
b111010100110111010 >
b110001010001101101 V
b11110001111010110011110 ,"
b1111010110011110 ?
b100100000011110 W
b1111101110100011010100000 -"
b110100011010100000 @
b1011000001111101 X
b101 B
bz1001011101010011000010100110000011001000011111100011111101011 t
1s"
1r"
1!#
bz1010100110110100101111101001110100011000000110110011011010101 i
bz1010100110110100101111101001110100011000000110110011011010101 6"
bz1010010111011011011001000110000000110111110111011000011110001 k
bz1010010111011011011001000110000000110111110111011000011110001 5"
bz1000000010000011000111001000010110100111110001111101111110110 m
bz1000000010000011000111001000010110100111110001111101111110110 4"
bz0000111110100001100001110001100010100110000110101100000110000 o
bz0000111110100001100001110001100010100110000110101100000110000 3"
bz0110100110111101011001111110001010001101101111010100110111010 q
bz0110100110111101011001111110001010001101101111010100110111010 2"
bz1000100010100100000010110000100100000011110001111010110011110 s
bz1000100010100100000010110000100100000011110001111010110011110 1"
bz0101101100000101101011000001011000001111101110100011010100000 x
bz0101101100000101101011000001011000001111101110100011010100000 0"
b10110111001011101010011000010100 +
b10110111001011101010011000010100 y
b10110111001011101010011000010100 ."
1&
b10110111001011101010011000010100 )
b10110111001011101010011000010100 (
b10110111001011101010011000010100 ,
#115
0&
#120
b1111001100001001 A
b101000001001001 C
b1010000010010011111001100001001 9"
b110 D
b1000100000001100101010010 $"
b111100011111 7
b110000011001 O
bz1000100000001100101010010110001010101100010111011101111010010 r
b10111110001101100101011 #"
b11010000111 6
b101111011 N
bz0010111110001101100101011001011011100010000110100010101011010 p
b110011001110000111010100 ""
b11110110 5
b1000110 M
bz0110011001110000111010100000100010100111101001111011001110100 n
b10110111001110001111001 !"
b111010011 4
b110001100 L
bz0010110111001110001111001110001011001000011111010100000110010 l
b100110101001101111011 ~
b11010110 3
b110000 K
bz0000100110101001101111011001100001010101110110101100011000010 j
b1111100101110110 }
b11111 2
b101 J
bz0000000001111100101110110000010110011100001001111110000000110 h
b1001000111011001010010111 |
b111011 1
b110000 I
bz1001000111011001010010111110000000110000011111011000100100001 f
bz1110110110110011101101010001110100100010001110110011011000000 d
b1110110110110011101101010 {
b11011 0
b111 H
1Y
b0 B
bz1101001110100000011010000000101000001001001001111001100001001 t
b1000011111100011111101011 -"
b111100011111101011 @
b110000011001000011 X
b10111110100001111011111 ,"
b110100001111011111 ?
b1011110110010111 W
b110011001111011000101110 +"
b1111011000101110 >
b100011000110011 V
b10110111010011010100110 *"
b111010011010100110 =
b110001100000010110 U
b100110101100010010010 )"
b110101100010010010 <
b1100001110000100 T
b1111110000000001 ("
b1111110000000001 ;
b10110100000000 S
b1001000111011000101010001 '"
b111011000101010001 :
b110000000101001000 R
b1110110110110011011000111 &"
b110110011011000111 9
b1110100011110110 Q
1u"
1t"
1"#
b1101101001110100000011010000 +
b1101101001110100000011010000 y
b1101101001110100000011010000 ."
bz1001011101010011000010100110000011001000011111100011111101011 x
bz1001011101010011000010100110000011001000011111100011111101011 0"
bz1111101111001100000000111001011110110010111110100001111011111 s
bz1111101111001100000000111001011110110010111110100001111011111 1"
bz0011110001100110011101010000100011000110011001111011000101110 q
bz0011110001100110011101010000100011000110011001111011000101110 2"
bz1101101111011111000010100110001100000010110111010011010100110 o
bz1101101111011111000010100110001100000010110111010011010100110 3"
bz0110000110100111000000011001100001110000100110101100010010010 m
bz0110000110100111000000011001100001110000100110101100010010010 4"
bz0111110001111011011011111000010110100000000001111110000000001 k
bz0111110001111011011011111000010110100000000001111110000000001 5"
bz0111110111010111001100110110000000101001000111011000101010001 i
bz0111110111010111001100110110000000101001000111011000101010001 6"
bz1000000110110100000011011001110100011110110110110011011000111 g
bz1000000110110100000011011001110100011110110110110011011000111 7"
1&
b1101101001110100000011010000 )
b1101101001110100000011010000 (
b1101101001110100000011010000 ,
#125
0&
#130
b1100100111001000 A
b1001110101111000 C
b10011101011110001100100111001000 9"
bz0010001110110011001101111001110100100000100110110011011000011 v
b10001110110011001101111 z
b1101 /
b11 G
b11111011000001111110 {
b11101 0
b11000 H
bz0000011111011000001111110110000000101100110111011000100111001 d
b1100001001111110101001100 |
b1111 1
b10 I
bz1100001001111110101001100000010110011110000001111110000000100 f
b101110110101011000110111 }
b1101011 2
b11000 J
bz0101110110101011000110111001100001001000011110101100011011010 h
b1000011111010110101001001 ~
b11101010 3
b11000101 K
bz1000011111010110101001001110001011100101101111010011101101101 j
b111101001110110001000111 !"
b1111011 4
b100010 L
bz0111101001110110001000111000100010011000010001111011010010110 l
b10000110011000100000000 ""
b1101000101 5
b10110111 M
bz0010000110011000100000000001011001111001011110100011000010001 n
b1100010111110010010000110 #"
b11101110111 6
b11000101010 N
bz1100010111110010010000110110001110011011001111011010110101000 p
b1001001010100010001110000 $"
b1111001100 7
b101000001 O
bz1001001010100010001110000000101010000010101001111000111001000 r
b1101 D
1a
b10001110110011011000000 %"
b110110011011000000 8
b1110100100010001 P
b11111011000100100001 &"
b111011000100100001 9
b110000000110000011 Q
b1100001001111110000000110 '"
b1111110000000110 :
b10110011100001 R
b101110110101100011000010 ("
b110101100011000010 ;
b1100001010101110 S
b1000011111010100000110010 )"
b111010100000110010 <
b110001011001000011 T
b111101001111011001110100 *"
b1111011001110100 =
b100010100111101 U
b10000110100010101011010 +"
b110100010101011010 >
b1011011100010000 V
b1100010111011101111010010 ,"
b111011101111010010 ?
b110001010101100010 W
b1001001001111001100001001 -"
b1111001100001001 @
b101000001001001 X
b11 B
bz0000111111101101110001100001001110101111000110011011000110111 t
1a"
1v"
1##
bz1110110110110011101101010001110100100010001110110011011000000 e
bz1110110110110011101101010001110100100010001110110011011000000 8"
bz1001000111011001010010111110000000110000011111011000100100001 g
bz1001000111011001010010111110000000110000011111011000100100001 7"
bz0000000001111100101110110000010110011100001001111110000000110 i
bz0000000001111100101110110000010110011100001001111110000000110 6"
bz0000100110101001101111011001100001010101110110101100011000010 k
bz0000100110101001101111011001100001010101110110101100011000010 5"
bz0010110111001110001111001110001011001000011111010100000110010 m
bz0010110111001110001111001110001011001000011111010100000110010 4"
bz0110011001110000111010100000100010100111101001111011001110100 o
bz0110011001110000111010100000100010100111101001111011001110100 3"
bz0010111110001101100101011001011011100010000110100010101011010 q
bz0010111110001101100101011001011011100010000110100010101011010 2"
bz1000100000001100101010010110001010101100010111011101111010010 s
bz1000100000001100101010010110001010101100010111011101111010010 1"
bz1101001110100000011010000000101000001001001001111001100001001 x
bz1101001110100000011010000000101000001001001001111001100001001 0"
b1100100000111111101101110001100 +
b1100100000111111101101110001100 y
b1100100000111111101101110001100 ."
1&
b1100100000111111101101110001100 )
b1100100000111111101101110001100 (
b1100100000111111101101110001100 ,
#135
0&
